4. Comparing with Gambit Python API: QRE in a Sender-Receriver Game • gtree
…
## 
## Sender-Receiver
## 
## Size Information:
##   - 64 possible outcomes
##   - 20 information sets (16 + 4)
##   - 1 048 576 pure strategy profiles (65536 * 16)
##   - 1 subgames
##   - 1 048 576 relevant pure strategy profiles in subgames

game %>%  eq_tables()

## $reveal
## # A tibble: 24 x 5
## # Groups:   orange, blue, reveal [24]
##    orange  blue reveal .prob eq.inds
##     <int> <int> <chr>  <dbl> <chr>  
##  1      1     1 blue   0.5   1      
##  2      1     1 orange 0.5   1      
##  3      1     2 blue   0.500 1      
##  4      1     2 orange 0.500 1      
##  5      1     3 blue   1     1      
##  6      1     4 blue   1     1      
##  7      2     1 blue   0.500 1      
##  8      2     1 orange 0.500 1      
##  9      2     2 blue   0.5   1      
## 10      2     2 orange 0.5   1      
## # ... with 14 more rows
## 
## $accept
…
## 
## Sender-Receiver
## 
## Size Information:
##   - 64 possible outcomes
##   - 20 information sets (16 + 4)
##   - 1 048 576 pure strategy profiles (65536 * 16)
##   - 1 subgames
##   - 1 048 576 relevant pure strategy profiles in subgames

## $reveal
## # A tibble: 32 x 5
## # Groups:   orange, blue, reveal [32]
##    orange  blue reveal  .prob eq.inds
##     <int> <int> <chr>   <dbl> <chr>  
##  1      1     1 blue   0.5    1      
##  2      1     1 orange 0.5    1      
##  3      1     2 blue   0.801  1      
##  4      1     2 orange 0.199  1      
##  5      1     3 blue   0.928  1      
##  6      1     3 orange 0.0722 1      
##  7      1     4 blue   0.928  1      
##  8      1     4 orange 0.0722 1      
##  9      2     1 blue   0.199  1      
## 10      2     1 orange 0.801  1      
## # ... with 22 more rows
## 
## $accept
…
